{
  "project_info": {
    "project_number": "249167550160",
    "firebase_url": "https://manzerpartazer-55257.firebaseio.com",
    "project_id": "manzerpartazer-55257",
    "storage_bucket": "manzerpartazer-55257.appspot.com"
  },
  "client": [
    {
      "client_info": {
        "mobilesdk_app_id": "1:249167550160:android:c3f3405e519df614",
        "android_client_info": {
          "package_name": "com.manzerpartazer"
        }
      },
      "oauth_client": [
        {
          "client_id": "249167550160-fj3cnp51fp04bkh85v3qeqv5teve2du0.apps.googleusercontent.com",
          "client_type": 1,
          "android_info": {
            "package_name": "com.manzerpartazer",
            "certificate_hash": "b3c44c8df50e705f35829ef231389aa4f2702cbd"
          }
        }
      ],
      "api_key": [
        {
          "current_key": "AIzaSyDypdS-p-cX8iarKqgGr9taoCGKKh7GZv8"
        }
      ],
      "services": {
        "appinvite_service": {
          "other_platform_oauth_client": [
            {
              "client_id": "249167550160-3d6t4l81go2adu5ioqitt8ue6ncc8hjm.apps.googleusercontent.com",
              "client_type": 3
            }
          ]
        }
      }
    }
  ],
  "configuration_version": "1"
}